^C:\USERS\MARK\SOURCE\REPOS\GDSTRUC\GDSTRUC\DEBUG\SOURCE.OBJ
C:\USERS\MARK\SOURCE\REPOS\GDSTRUC\DEBUG\GDSTRUC.EXE
C:\USERS\MARK\SOURCE\REPOS\GDSTRUC\DEBUG\GDSTRUC.ILK
C:\USERS\MARK\SOURCE\REPOS\GDSTRUC\DEBUG\GDSTRUC.PDB
