^C:\USERS\MARK\SOURCE\REPOS\GDSTRUC 11-4\GDSTRUC 11-4\SOURCE.CPP
C:\USERS\MARK\SOURCE\REPOS\GDSTRUC 11-4\GDSTRUC 11-4\DEBUG\VC142.PDB
C:\USERS\MARK\SOURCE\REPOS\GDSTRUC 11-4\GDSTRUC 11-4\DEBUG\VC142.IDB
C:\USERS\MARK\SOURCE\REPOS\GDSTRUC 11-4\GDSTRUC 11-4\DEBUG\SOURCE.OBJ
