^C:\USERS\MARK\SOURCE\REPOS\GDSTRUC SW 4\GDSTRUC SW 4\DEBUG\SOURCE.OBJ
C:\USERS\MARK\SOURCE\REPOS\GDSTRUC SW 4\DEBUG\GDSTRUC SW 4.EXE
C:\USERS\MARK\SOURCE\REPOS\GDSTRUC SW 4\DEBUG\GDSTRUC SW 4.ILK
C:\USERS\MARK\SOURCE\REPOS\GDSTRUC SW 4\DEBUG\GDSTRUC SW 4.PDB
