^C:\USERS\MARK\SOURCE\REPOS\MIDTERMS\MIDTERMS\DEBUG\SOURCE.OBJ
C:\USERS\MARK\SOURCE\REPOS\MIDTERMS\DEBUG\MIDTERMS.EXE
C:\USERS\MARK\SOURCE\REPOS\MIDTERMS\DEBUG\MIDTERMS.ILK
C:\USERS\MARK\SOURCE\REPOS\MIDTERMS\DEBUG\MIDTERMS.PDB
