^C:\USERS\MARK\SOURCE\REPOS\GDSTRUC FINALS\GDSTRUC FINALS\DEBUG\SOURCE.OBJ
C:\USERS\MARK\SOURCE\REPOS\GDSTRUC FINALS\DEBUG\GDSTRUC FINALS.EXE
C:\USERS\MARK\SOURCE\REPOS\GDSTRUC FINALS\DEBUG\GDSTRUC FINALS.ILK
C:\USERS\MARK\SOURCE\REPOS\GDSTRUC FINALS\DEBUG\GDSTRUC FINALS.PDB
